wave.vcd
$date
	Wed Oct 22 02:25:28 2025
$end
$version
	Icarus Verilog
$end
$timescale
	1ps
$end
$scope module tb $end
$scope module stim1 $end
$var wire 1 ! clk $end
$upscope $end
$upscope $end
$scope module tb $end
$var wire 1 " tb_mismatch $end
$upscope $end
$scope module tb $end
$var wire 1 # x $end
$upscope $end
$scope module tb $end
$var wire 1 $ y $end
$upscope $end
$scope module tb $end
$var wire 1 % z_ref $end
$upscope $end
$scope module tb $end
$var wire 1 & z_dut $end
$upscope $end
$enddefinitions $end
$comment Show the parameter values. $end
$dumpall
$end
#0
$dumpvars
x&
x%
x$
x#
0"
0!
$end
#5
0"
0&
0%
0#
0$
1!
#10
1$
0!
#15
1!
#20
0"
0&
1#
0!
#25
0#
1!
#30
0!
#35
1!
#40
0"
1&
1%
1#
0$
0!
#45
0"
0&
0%
0#
1$
1!
#50
0!
#55
0"
1&
1%
1#
0$
1!
#60
0"
0&
0%
0#
1$
0!
#65
1!
#70
0$
0!
#75
1$
1!
#80
0"
1&
1%
1#
0$
0!
#85
0"
0&
0%
0#
1$
1!
#90
0"
1&
1%
1#
0$
0!
#95
0"
0&
0%
0#
1$
1!
#100
0"
0&
1#
0!
#105
0"
1&
1%
0$
1!
#110
0"
0&
0%
1$
0!
#115
0"
1&
1%
0$
1!
#120
0!
#125
0"
0&
0%
0#
1!
#130
1$
0!
#135
0$
1!
#140
1$
0!
#145
1!
#150
0!
#155
0"
0&
1#
1!
#160
0"
1&
1%
0$
0!
#165
0"
0&
0%
0#
1!
#170
0!
#175
1&
0"
1%
1#
1!
#180
0"
0&
0%
0#
1$
0!
#185
0"
1&
1%
1#
0$
1!
#190
0"
0&
0%
1$
0!
#195
0#
1!
#200
0"
0&
1#
0!
#205
1!
#210
0#
0!
#215
0"
1&
1%
1#
0$
1!
#220
0!
#225
0"
0&
0%
0#
1$
1!
#230
0"
0&
1#
0!
#235
1!
#240
0"
1&
1%
0$
0!
#245
1!
#250
0"
0&
0%
0#
0!
#255
1&
0"
1%
1#
1!
#260
0!
#265
0"
0&
0%
0#
1$
1!
#270
0$
0!
#275
1!
#280
1$
0!
#285
0"
0&
1#
1!
#290
0"
1&
1%
0$
0!
#295
1!
#300
0!
#305
0"
0&
0%
0#
1!
#310
1&
0"
1%
1#
0!
#315
0"
0&
0%
1$
1!
#320
0#
0!
#325
1!
#330
0"
0&
1#
0!
#335
1!
#340
0"
1&
1%
0$
0!
#345
1!
#350
0"
0&
0%
0#
1$
0!
#355
1!
#360
0!
#365
0"
1&
1%
1#
0$
1!
#370
0"
0&
0%
0#
0!
#375
1#
1$
1!
#380
0!
#385
0#
0$
1!
#390
1#
1$
0!
#395
1!
#400
0#
0$
0!
#405
1#
1$
1!
#410
0#
0!
#415
1!
#420
0$
0!
#425
1#
1$
1!
#430
0#
0!
#435
0"
1&
1%
1#
0$
1!
#440
0"
0&
0%
0#
0!
#445
1&
0"
1%
1#
1!
#450
0"
0&
0%
0#
0!
#455
1#
1$
1!
#460
0#
0!
#465
0"
1&
1%
1#
0$
1!
#470
0!
#475
0"
0&
0%
0#
1$
1!
#480
0!
#485
0"
0&
1#
1!
#490
0!
#495
0#
1!
#500
0$
0!
#505
1#
1$
1!
#510
0#
0!
#515
0"
0&
1#
1!
#520
0"
1&
1%
0$
0!
#525
0"
0&
0%
0#
1!
#530
1&
0"
1%
1#
0!
#535
1!
#540
0"
0&
0%
0#
0!
#545
1&
0"
1%
1#
1!
#550
0!
#555
0"
0&
0%
1$
1!
#560
0!
#565
1!
#570
0!
#575
1!
#580
0#
0$
0!
#585
1#
1$
1!
#590
0!
#595
0"
1&
1%
0$
1!
#600
0!
#605
0"
0&
0%
0#
1$
1!
#610
0!
#615
0"
1&
1%
1#
0$
1!
#620
0"
0&
0%
0#
1$
0!
#625
1!
#630
0"
0&
1#
0!
#635
0#
1!
#640
0$
0!
#645
1!
#650
1&
0"
1%
1#
0!
#655
0"
0&
0%
1$
1!
#660
0"
1&
1%
0$
0!
#665
0"
0&
0%
0#
1!
#670
1&
0"
1%
1#
0!
#675
0"
0&
0%
0#
1$
1!
#680
0"
0&
1#
0!
#685
0"
1&
1%
0$
1!
#690
0!
#695
0"
0&
0%
1$
1!
#700
0"
1&
1%
0$
0!
#705
1!
#710
0"
0&
0%
0#
0!
#715
1$
1!
#720
0$
0!
#725
1!
#730
1#
1$
0!
#735
0#
0$
1!
#740
1$
0!
#745
0"
0&
1#
1!
#750
0#
0!
#755
1!
#760
0!
#765
0"
1&
1%
1#
0$
1!
#770
0!
#775
1!
#780
0"
0&
0%
0#
1$
0!
#785
0"
1&
1%
1#
0$
1!
#790
0"
0&
0%
0#
0!
#795
1#
1$
1!
#800
0#
0!
#805
0$
1!
#810
0!
#815
1!
#820
1$
0!
#825
0"
0&
1#
1!
#830
0"
1&
1%
0$
0!
#835
0"
0&
0%
0#
1!
#840
0!
#845
1$
1!
#850
0!
#855
0$
1!
#860
1&
0"
1%
1#
0!
#865
1!
#870
0"
0&
0%
0#
1$
0!
#875
0"
1&
1%
1#
0$
1!
#880
0"
0&
0%
0#
0!
#885
1#
1$
1!
#890
0"
1&
1%
0$
0!
#895
1!
#900
0!
#905
0"
0&
0%
0#
1$
1!
#910
0"
1&
1%
1#
0$
0!
#915
0"
0&
0%
0#
1$
1!
#920
0"
0&
1#
0!
#925
0"
1&
1%
0$
1!
#930
0"
0&
0%
0#
0!
#935
1&
0"
1%
1#
1!
#940
0!
#945
0"
0&
0%
0#
1$
1!
#950
0$
0!
#955
1&
0"
1%
1#
1!
#960
0"
0&
0%
0#
0!
#965
1&
0"
1%
1#
1!
#970
0"
0&
0%
1$
0!
#975
1!
#980
0#
0!
#985
0"
1&
1%
1#
0$
1!
#990
0"
0&
0%
0#
1$
0!
#995
0"
0&
1#
1!
#1000
0#
0!
#1005
0"
1&
1%
1#
0$
1!
#1010
0"
0&
0%
0#
0!
